Final Project Report
…
store_data %>% 
  group_by(Store) %>% 
  summarize(Total_Store_Sales=sum(Weekly_Sales)) %>% 
  arrange(desc(Total_Store_Sales))

# A tibble: 45 × 2
   Store Total_Store_Sales
   <int>             <dbl>
 1    20        301397792.
 2     4        299543953.
 3    14        288999911.
 4    13        286517704.
 5     2        275382441.
 6    10        271617714.
 7    27        253855917.
 8     6        223756131.
 9     1        222402809.
10    39        207445542.
# ℹ 35 more rows
…
  group_by(Store, Month) %>% 
  summarize(Mean_Temperature=mean(Temperature)) %>% 
  mutate(
    Month_Name = month.name,
    Mean_Temperature = round(Mean_Temperature, 2)
  )
store_temps = store_temps_grouped %>% 
  dplyr::select(-Month) %>% 
  pivot_wider(
    names_from=Month_Name,
    values_from = Mean_Temperature
  )
store_temps

# A tibble: 45 × 13
# Groups:   Store [45]
   Store January February March April   May  June  July August September October
   <int>   <dbl>    <dbl> <dbl> <dbl> <dbl> <dbl> <dbl>  <dbl>     <dbl>   <dbl>
 1     1    47.2     47.8  59.6  67.4  73.9  81.9  83.1   86.2      79.0    67.9
 2     2    44.6     46.3  58.7  66.3  73.4  83.1  85.6   87.9      79.9    67.2
 3     3    52.0     52.9  63.4  71.6  76.7  83.5  84.1   86.7      81.2    71.9
 4     4    38.2     38.8  53.2  61.8  68.8  79.8  80.7   80.2      71.7    62.5
 5     5    48.0     48.4  60.0  68.3  74.6  82.8  84.2   87.2      80.7    69.6
 6     6    48.2     49.0  60.4  69.2  74.7  83.2  84.5   87.1      80.6    69.8
 7     7    17.2     18.7  29.3  36.7  42.8  56.5  61.0   59.1      49.4    39.7
 8     8    40.1     38.7  52.7  61.9  67.9  80.3  80.5   81.0      72.9    62.0
 9     9    44.7     45.1  58.1  67.5  73.1  83.7  85.0   86.6      78.6    66.9
10    10    52.8     54.2  60.4  69.3  76.9  86.8  88.5   87.5      83.7    74.7
# ℹ 35 more rows
# ℹ 2 more variables: November <dbl>, December <dbl>
…
